{
  "allowHttpBackend": false,
  "backendCommand": "",
  "backendFolderName": "",
  "extensionViews": [
    {
      "id": "1",
      "label": "Broadcaster",
      "channelId": "452150506",
      "configurationAnchor": "video_overlay",
      "displayChannelName": "zoun123",
      "type": "component",
      "features": {
        "isBitsEnabled": true,
        "isChatEnabled": false,
        "isSubscriptionStatusAvailable": false
      },
      "linked": false,
      "linkedUserId": "",
      "mode": "viewer",
      "isPopout": false,
      "role": "Broadcaster",
      "orientation": "Portrait",
      "frameSize": {
        "width": 1024,
        "height": 576
      }
    },
    {
      "id": "2",
      "label": "test",
      "channelId": "452150506",
      "configurationAnchor": "video_overlay",
      "displayChannelName": "zoun123",
      "type": "component",
      "features": {
        "isBitsEnabled": true,
        "isChatEnabled": false,
        "isSubscriptionStatusAvailable": false
      },
      "linked": true,
      "linkedUserId": "265737932",
      "mode": "viewer",
      "isPopout": false,
      "role": "Logged-In Viewer",
      "orientation": "Portrait",
      "frameSize": {
        "width": 854,
        "height": 480
      }
    }
  ],
  "manifest": {
    "anchor": "video_overlay",
    "assetUrls": [],
    "authorName": "Bishwendu Kundu",
    "bitsEnabled": true,
    "canInstall": true,
    "configUrl": "http://localhost:5000/config.html",
    "configurationLocation": "none",
    "description": "Imagine if viewers could help Streamers be more productive in their adventure through StarCraft 2, by performing some work for them. Like you can issue live commands to AlfredBot to build pylons, workers or attack an enemy unit. As a viewer you do not need to even install StarCraft 2. Just issue commands and AlfredBot will execute them on live stream.\n\nCurrently only Protos race is supported in game play.\n\nStreamer/Broadcaster:\nAs a streamer you can start StarCraft 2 through AlfredBot desktop app available here http://bit.do/alfybot. All you need to do is enable AlfredBot Twitch extension on your stream and download AlfredBot on your PC. Once done startup AlfredBot and the desktop application will prompt you to launch Starcraft 2 game. Now live stream to your viewers and have an immersive collaborative experience.\n\nFor Detailed Instructions and AlfredBot Desktop app please visit below:\nhttps://bishwenduk029.github.io/alfredbotsite/",
    "eulaTosUrl": "",
    "hasChatSupport": false,
    "iconUrl": "https://extensions-discovery-images.twitch.tv/do60jzhtnjdh7z21zxsfqq2b8crlvi/0.0.7/logoa672af1f-b1bd-490e-a292-a588ca1e422c",
    "iconUrls": {
      "100x100": "https://extensions-discovery-images.twitch.tv/do60jzhtnjdh7z21zxsfqq2b8crlvi/0.0.7/logoa672af1f-b1bd-490e-a292-a588ca1e422c",
      "24x24": "https://extensions-discovery-images.twitch.tv/do60jzhtnjdh7z21zxsfqq2b8crlvi/0.0.7/taskbar5e429f16-355f-4a99-af79-fcd2cf40e3dd",
      "300x200": "https://extensions-discovery-images.twitch.tv/do60jzhtnjdh7z21zxsfqq2b8crlvi/0.0.7/discovery31958e68-ceaa-487a-952a-d5f7b3ed9a2c"
    },
    "id": "do60jzhtnjdh7z21zxsfqq2b8crlvi",
    "installationCount": -42,
    "liveConfigUrl": "",
    "name": "AlfredBot For Starcraft 2",
    "panelHeight": 0,
    "privacyPolicyUrl": "",
    "requestIdentityLink": true,
    "requiredBroadcasterAbilities": [],
    "screenshotUrls": [
      "https://extensions-discovery-images.twitch.tv/do60jzhtnjdh7z21zxsfqq2b8crlvi/0.0.7/screenshot02c17c8d-4136-4b22-9464-0a2a2eb9da06",
      "https://extensions-discovery-images.twitch.tv/do60jzhtnjdh7z21zxsfqq2b8crlvi/0.0.7/screenshot9333ac2a-d1cf-4bf8-9852-623119c2f8de"
    ],
    "sku": "",
    "state": "Testing",
    "subscriptionsSupportLevel": "none",
    "summary": "Alfred at your service. Provide commands to perform various action in StarCraft 2 live with streamer.",
    "supportEmail": "bishwenduk029@gmail.com",
    "vendorCode": "",
    "version": "0.0.7",
    "viewerSummary": "As a viewer after logging into AlfredBot4SC2 Twitch extension, you can purchase any of the command packages and start issuing commands.",
    "viewerUrl": "",
    "viewerUrls": {
      "videoOverlay": "http://localhost:5000/video_overlay.html",
      "component": "http://localhost:5000/video_component.html"
    },
    "views": {
      "videoOverlay": {
        "viewerUrl": "http://localhost:5000/video_overlay.html",
        "canLinkExternalContent": false
      },
      "component": {
        "viewerUrl": "http://localhost:5000/video_component.html",
        "aspectWidth": 0,
        "aspectHeight": 0,
        "aspectRatioX": 1200,
        "aspectRatioY": 900,
        "autoscale": false,
        "scalePixels": 1024,
        "targetHeight": 10000,
        "size": 0,
        "zoom": false,
        "zoomPixels": 0,
        "canLinkExternalContent": false
      },
      "config": {
        "viewerUrl": "http://localhost:5000/config.html",
        "canLinkExternalContent": false
      }
    },
    "whitelistedConfigUrls": [],
    "whitelistedPanelUrls": []
  },
  "frontendCommand": "",
  "frontendFolderName": "/Users/bk670992/Hacks/TwitchExtension4SC2/Twitch/nefertitti/public",
  "name": "Alfred For Starcraft 2",
  "certificateExceptions": [],
  "version": 1
}